work.bool_array_tc.vcd
$date
  Thu Oct  1 00:12:23 2020
$end
$version
  GHDL v0
$end
$timescale
  1 fs
$end
$scope module standard $end
$upscope $end
$scope module textio $end
$upscope $end
$scope module std_logic_1164 $end
$upscope $end
$scope module numeric_std $end
$upscope $end
$scope module math_real $end
$upscope $end
$scope module testcase_pkg $end
$var reg 1 ! test $end
$var reg 1 " tc_model_init $end
$upscope $end
$scope module std_logic_misc $end
$upscope $end
$scope module stream_pkg $end
$upscope $end
$scope module simdatacomms_pkg $end
$upscope $end
$scope module clockgen_pkg $end
$upscope $end
$scope module streammonitor_pkg $end
$upscope $end
$scope module streamsource_pkg $end
$upscope $end
$scope module streamsink_pkg $end
$upscope $end
$scope module utilint_pkg $end
$upscope $end
$scope module json_pkg $end
$upscope $end
$scope module test_util_pkg $end
$upscope $end
$scope module bool_array_tc $end
$var reg 1 # clk $end
$var reg 1 $ reset $end
$var reg 1 % in_valid $end
$var reg 1 & in_ready $end
$var reg 1 ' in_dvalid $end
$var reg 1 ( in_last $end
$var reg 64 ) in_data[63:0] $end
$var reg 4 * in_count[3:0] $end
$var reg 8 + in_strb[7:0] $end
$var reg 4 , in_endi[3:0] $end
$var reg 1 - kv_ready $end
$var reg 1 . kv_valid $end
$var reg 64 / kv_data[63:0] $end
$comment kv_tag is not handled $end
$var reg 3 0 kv_stai[2:0] $end
$var reg 3 1 kv_endi[2:0] $end
$var reg 8 2 kv_strb[7:0] $end
$var reg 8 3 kv_last[7:0] $end
$var reg 1 4 out_ready $end
$var reg 1 5 out_valid $end
$var reg 1 6 out_data $end
$var reg 64 7 aligned_data[63:0] $end
$var reg 4 8 out_count[3:0] $end
$var integer 32 9 out_tag_int $end
$scope module clkgen $end
$var reg 1 : clk $end
$var reg 1 ; clk_n $end
$var reg 1 < reset $end
$var reg 1 = reset_n $end
$var reg 1 > sync $end
$var reg 1 ? clk_i $end
$upscope $end
$scope module in_source $end
$var reg 1 @ clk $end
$var reg 1 A reset $end
$var reg 1 B valid $end
$var reg 1 C ready $end
$var reg 1 D dvalid $end
$var reg 64 E data[63:0] $end
$var reg 4 F count[3:0] $end
$var reg 1 G last $end
$var reg 1 H ctrl[0:0] $end
$var reg 1 I x[0:0] $end
$var reg 1 J y[0:0] $end
$var reg 1 K z[0:0] $end
$scope module monitor $end
$var reg 1 L clk $end
$var reg 1 M reset $end
$var reg 1 N valid $end
$var reg 1 O ready $end
$var reg 1 P dvalid $end
$var reg 64 Q data[63:0] $end
$var reg 4 R count[3:0] $end
$var reg 1 S last $end
$var reg 1 T ctrl[0:0] $end
$var reg 1 U x[0:0] $end
$var reg 1 V y[0:0] $end
$var reg 1 W z[0:0] $end
$upscope $end
$upscope $end
$scope module record_praer_i $end
$var reg 1 X clk $end
$var reg 1 Y reset $end
$var reg 1 Z in_valid $end
$var reg 1 [ in_ready $end
$comment in_data is not handled $end
$var reg 8 \ in_last[7:0] $end
$var reg 3 ] in_stai[2:0] $end
$var reg 3 ^ in_endi[2:0] $end
$var reg 8 _ in_strb[7:0] $end
$var reg 1 ` out_valid $end
$var reg 1 a out_ready $end
$comment out_data is not handled $end
$var reg 8 b out_last[7:0] $end
$var reg 3 c out_stai[2:0] $end
$var reg 3 d out_endi[2:0] $end
$var reg 8 e out_strb[7:0] $end
$upscope $end
$scope module bool_parser_i $end
$var reg 1 f clk $end
$var reg 1 g reset $end
$var reg 1 h in_valid $end
$var reg 1 i in_ready $end
$comment in_data is not handled $end
$var reg 8 j in_last[7:0] $end
$var reg 3 k in_stai[2:0] $end
$var reg 3 l in_endi[2:0] $end
$var reg 8 m in_strb[7:0] $end
$var reg 1 n out_valid $end
$var reg 1 o out_ready $end
$var reg 1 p out_data $end
$upscope $end
$upscope $end
$enddefinitions $end
#0
1!
1"
0#
1$
U%
U&
U'
U(
bUUUUUUUUUUUUUUUUUUUUUUUUUUUUUUUUUUUUUUUUUUUUUUUUUUUUUUUUUUUUUUUU )
bUUUU *
bUUUUUUUU +
bXXXX ,
U-
U.
bUUUUUUUUUUUUUUUUUUUUUUUUUUUUUUUUUUUUUUUUUUUUUUUUUUUUUUUUUUUUUUUU /
b000 0
b111 1
b11111111 2
b00000000 3
14
U5
U6
bUUUUUUUUUUUUUUUUUUUUUUUUUUUUUUUUUUUUUUUUUUUUUUUUUUUUUUUUUUUUUUUU 7
bUUUU 8
b10000000000000000000000000000000 9
0:
1;
1<
0=
0>
0?
0@
1A
UB
UC
UD
bUUUUUUUUUUUUUUUUUUUUUUUUUUUUUUUUUUUUUUUUUUUUUUUUUUUUUUUUUUUUUUUU E
bUUUU F
UG
bU H
bU I
bU J
bU K
0L
1M
UN
UO
UP
bUUUUUUUUUUUUUUUUUUUUUUUUUUUUUUUUUUUUUUUUUUUUUUUUUUUUUUUUUUUUUUUU Q
bUUUU R
US
bU T
bU U
bU V
bU W
0X
1Y
UZ
U[
b00000000 \
b000 ]
b111 ^
bUUUUUUUU _
U`
Ua
b00000000 b
b000 c
b111 d
b11111111 e
0f
1g
Uh
Ui
b00000000 j
b000 k
b111 l
b11111111 m
Un
1o
Up
#500000000
#600000000
#1000000000
1>
#2000000000
1#
0%
0&
0-
0.
bUUU 0
bUUU 1
bUUUUUUUU 2
bUUUUUUUU 3
05
06
1:
0;
0>
1?
1@
0B
0C
UD
bUUUUUUUUUUUUUUUUUUUUUUUUUUUUUUUUUUUUUUUUUUUUUUUUUUUUUUUUUUUUUUUU E
bUUUU F
UG
bU H
bU I
bU J
bU K
1L
0N
0O
1X
0Z
0[
0`
0a
bUUUUUUUU b
bUUU c
bUUU d
bUUUUUUUU e
1f
0h
0i
bUUUUUUUU j
bUUUUUUUU m
0n
0p
#2005000000
0#
0:
1;
0?
0@
0L
0X
0f
#2010000000
1#
1:
0;
1?
1@
1L
1X
1f
#2015000000
0#
0:
1;
0?
0@
0L
0X
0f
#2020000000
1#
1:
0;
1?
1@
1L
1X
1f
#2025000000
0#
0:
1;
0?
0@
0L
0X
0f
#2030000000
1#
1:
0;
1?
1@
1L
1X
1f
#2035000000
0#
0:
1;
0?
0@
0L
0X
0f
#2040000000
1#
1:
0;
1?
1@
1L
1X
1f
#2045000000
0#
0:
1;
0?
0@
0L
0X
0f
#2050000000
1#
1:
0;
1?
1@
1L
1X
1f
#2055000000
0#
0:
1;
0?
0@
0L
0X
0f
#2060000000
1#
1:
0;
1?
1@
1L
1X
1f
#2065000000
0#
0:
1;
0?
0@
0L
0X
0f
#2070000000
1#
1:
0;
1?
1@
1L
1X
1f
#2075000000
0#
0:
1;
0?
0@
0L
0X
0f
#2080000000
1#
1:
0;
1?
1@
1L
1X
1f
#2085000000
0#
0:
1;
0?
0@
0L
0X
0f
#2090000000
1#
1:
0;
1?
1@
1L
1X
1f
#2095000000
0#
0:
1;
0?
0@
0L
0X
0f
#2100000000
1#
0$
1:
0;
0<
1=
1?
1@
0A
1L
0M
1X
0Y
1f
0g
#2105000000
Z"
0#
0:
1;
0?
0@
0L
0X
0f
#2110000000
1#
1%
1&
1'
0(
b0011000101100101011101010110110001100001011101100010001001111011 )
b1000 *
b11111111 +
b0111 ,
1-
1:
0;
1?
1@
1B
1C
1D
b0011000101100101011101010110110001100001011101100010001001111011 E
b1000 F
0G
1L
1N
1O
1P
b0011000101100101011101010110110001100001011101100010001001111011 Q
b1000 R
0S
1X
1Z
1[
b11111111 _
1a
1f
1i
#2115000000
0#
0:
1;
0?
0@
0L
0X
0f
#2120000000
1#
b0110010101110011011011000110000101100110001000000011101000100010 )
1.
b0011000101100101011101010110110001100001011101100010001001111011 /
b010 0
b111 1
b11111100 2
b00000000 3
1:
0;
1?
1@
b0110010101110011011011000110000101100110001000000011101000100010 E
1L
b0110010101110011011011000110000101100110001000000011101000100010 Q
1X
1`
b00000000 b
b010 c
b111 d
b11111100 e
1f
1h
b00000000 j
b11111100 m
#2125000000
0#
0:
1;
0?
0@
0L
0X
0f
#2130000000
1#
0&
b0110010101110101011011000110000101110110001000100010000000101100 )
0.
b0110010101110011011011000110000101100110001000000011101000100010 /
b000 0
b110 1
b00000000 2
b00000001 3
1:
0;
1?
1@
0C
b0110010101110101011011000110000101110110001000100010000000101100 E
1L
0O
b0110010101110101011011000110000101110110001000100010000000101100 Q
1X
0[
0`
b00000001 b
b000 c
b110 d
b00000000 e
1f
0h
b00000001 j
b00000000 m
#2135000000
0#
0:
1;
0?
0@
0L
0X
0f
#2140000000
1#
1&
1.
b010 0
b000 1
b11111100 2
b00000000 3
1:
0;
1?
1@
1C
1L
1O
1X
1[
1`
b00000000 b
b010 c
b000 d
b11111100 e
1f
1h
b00000000 j
b11111100 m
#2145000000
0#
0:
1;
0?
0@
0L
0X
0f
#2150000000
1#
0&
b0110010101110101011100100111010000100000001110100010001000110010 )
0.
b0110010101110101011011000110000101110110001000100010000000101100 /
b000 0
b110 1
b00000000 2
b00000001 3
15
1:
0;
1?
1@
0C
b0110010101110101011100100111010000100000001110100010001000110010 E
1L
0O
b0110010101110101011100100111010000100000001110100010001000110010 Q
1X
0[
0`
b00000001 b
b000 c
b110 d
b00000000 e
1f
0h
b00000001 j
b00000000 m
1n
#2155000000
0#
0:
1;
0?
0@
0L
0X
0f
#2160000000
1#
1&
1.
b011 0
b000 1
b11111000 2
b00000000 3
05
1:
0;
1?
1@
1C
1L
1O
1X
1[
1`
b00000000 b
b011 c
b000 d
b11111000 e
1f
1h
b00000000 j
b11111000 m
0n
#2165000000
0#
0:
1;
0?
0@
0L
0X
0f
#2170000000
1#
0&
b0111010101101100011000010111011000100010011110110010000001111101 )
b0110010101110101011100100111010000100000001110100010001000110010 /
b000 0
b110 1
b00000001 2
b00000010 3
1:
0;
1?
1@
0C
b0111010101101100011000010111011000100010011110110010000001111101 E
1L
0O
b0111010101101100011000010111011000100010011110110010000001111101 Q
1X
0[
b00000010 b
b000 c
b110 d
b00000001 e
1f
b00000010 j
b00000001 m
#2175000000
0#
0:
1;
0?
0@
0L
0X
0f
#2180000000
1#
1&
b011 0
b001 1
b11111000 2
b00000000 3
1:
0;
1?
1@
1C
1L
1O
1X
1[
b00000000 b
b011 c
b001 d
b11111000 e
1f
b00000000 j
b11111000 m
#2185000000
0#
0:
1;
0?
0@
0L
0X
0f
#2190000000
1#
0&
b0110110001100001011001100010000000111010001000100011000101100101 )
0.
b0111010101101100011000010111011000100010011110110010000001111101 /
b000 0
b110 1
b00000000 2
b00000001 3
15
16
1:
0;
1?
1@
0C
b0110110001100001011001100010000000111010001000100011000101100101 E
1L
0O
b0110110001100001011001100010000000111010001000100011000101100101 Q
1X
0[
0`
b00000001 b
b000 c
b110 d
b00000000 e
1f
0h
b00000001 j
b00000000 m
1n
1p
#2195000000
0#
0:
1;
0?
0@
0L
0X
0f
#2200000000
1#
1&
1.
b100 0
b000 1
b11110000 2
b00000000 3
05
1:
0;
1?
1@
1C
1L
1O
1X
1[
1`
b00000000 b
b100 c
b000 d
b11110000 e
1f
1h
b00000000 j
b11110000 m
0n
#2205000000
0#
0:
1;
0?
0@
0L
0X
0f
#2210000000
1#
0&
b0110110001100001011101100010001000100000001011000110010101110011 )
b0110110001100001011001100010000000111010001000100011000101100101 /
b000 0
b110 1
b00000011 2
b00000100 3
1:
0;
1?
1@
0C
b0110110001100001011101100010001000100000001011000110010101110011 E
1L
0O
b0110110001100001011101100010001000100000001011000110010101110011 Q
1X
0[
b00000100 b
b000 c
b110 d
b00000011 e
1f
b00000100 j
b00000011 m
#2215000000
0#
0:
1;
0?
0@
0L
0X
0f
#2220000000
1#
1&
b100 0
b010 1
b11110000 2
b00000000 3
1:
0;
1?
1@
1C
1L
1O
1X
1[
b00000000 b
b100 c
b010 d
b11110000 e
1f
b00000000 j
b11110000 m
#2225000000
0#
0:
1;
0?
0@
0L
0X
0f
#2230000000
1#
0&
b0111001001110100001000000011101000100010001100100110010101110101 )
b0110110001100001011101100010001000100000001011000110010101110011 /
b000 0
b110 1
b00000011 2
b00000100 3
15
06
1:
0;
1?
1@
0C
b0111001001110100001000000011101000100010001100100110010101110101 E
1L
0O
b0111001001110100001000000011101000100010001100100110010101110101 Q
1X
0[
b00000100 b
b000 c
b110 d
b00000011 e
1f
b00000100 j
b00000011 m
1n
0p
#2235000000
0#
0:
1;
0?
0@
0L
0X
0f
#2240000000
1#
1&
b101 0
b010 1
b11100000 2
b00000000 3
05
1:
0;
1?
1@
1C
1L
1O
1X
1[
b00000000 b
b101 c
b010 d
b11100000 e
1f
b00000000 j
b11100000 m
0n
#2245000000
0#
0:
1;
0?
0@
0L
0X
0f
#2250000000
1#
0&
1(
bUUUUUUUUUUUUUUUUUUUUUUUUUUUUUUUUUUUUUUUU011111010110010101110101 )
b0011 *
b00000111 +
b0010 ,
b0111001001110100001000000011101000100010001100100110010101110101 /
b000 0
b110 1
b00000111 2
b00001000 3
1:
0;
1?
1@
0C
bUUUUUUUUUUUUUUUUUUUUUUUUUUUUUUUUUUUUUUUU011111010110010101110101 E
b0011 F
1G
1L
0O
bUUUUUUUUUUUUUUUUUUUUUUUUUUUUUUUUUUUUUUUU011111010110010101110101 Q
b0011 R
1S
1X
0[
b00000111 _
b00001000 b
b000 c
b110 d
b00000111 e
1f
b00001000 j
b00000111 m
#2255000000
0#
0:
1;
0?
0@
0L
0X
0f
#2260000000
1#
1&
b101 0
b011 1
b11100000 2
b00000000 3
1:
0;
1?
1@
1C
1L
1O
1X
1[
b00000000 b
b101 c
b011 d
b11100000 e
1f
b00000000 j
b11100000 m
#2265000000
0#
0:
1;
0?
0@
0L
0X
0f
#2270000000
1#
0%
bUUUUUUUUUUUUUUUUUUUUUUUUUUUUUUUUUUUUUUUU011111010110010101110101 /
b000 0
b001 1
b00000011 2
b00000100 3
15
16
1:
0;
1?
1@
0B
1L
0N
1X
0Z
b00000100 b
b000 c
b001 d
b00000011 e
1f
b00000100 j
b00000011 m
1n
1p
#2275000000
0#
0:
1;
0?
0@
0L
0X
0f
#2280000000
1#
0.
b111 1
05
1:
0;
1?
1@
1L
1X
0`
b111 d
1f
0h
0n
