work.bool_array_tc.vcd
$date
  Sun Oct  4 20:11:41 2020
$end
$version
  GHDL v0
$end
$timescale
  1 fs
$end
$scope module standard $end
$upscope $end
$scope module textio $end
$upscope $end
$scope module std_logic_1164 $end
$upscope $end
$scope module numeric_std $end
$upscope $end
$scope module math_real $end
$upscope $end
$scope module testcase_pkg $end
$var reg 1 ! test $end
$var reg 1 " tc_model_init $end
$upscope $end
$scope module std_logic_misc $end
$upscope $end
$scope module stream_pkg $end
$upscope $end
$scope module simdatacomms_pkg $end
$upscope $end
$scope module clockgen_pkg $end
$upscope $end
$scope module streammonitor_pkg $end
$upscope $end
$scope module streamsource_pkg $end
$upscope $end
$scope module streamsink_pkg $end
$upscope $end
$scope module utilint_pkg $end
$upscope $end
$scope module json_pkg $end
$upscope $end
$scope module test_util_pkg $end
$upscope $end
$scope module bool_array_tc $end
$var reg 1 # clk $end
$var reg 1 $ reset $end
$var reg 1 % in_valid $end
$var reg 1 & in_ready $end
$var reg 1 ' in_dvalid $end
$var reg 1 ( in_last $end
$var reg 64 ) in_data[63:0] $end
$var reg 4 * in_count[3:0] $end
$var reg 8 + in_strb[7:0] $end
$var reg 4 , in_endi[3:0] $end
$var reg 1 - kv_ready $end
$var reg 1 . kv_valid $end
$var reg 64 / kv_data[63:0] $end
$comment kv_tag is not handled $end
$var reg 3 0 kv_stai[2:0] $end
$var reg 3 1 kv_endi[2:0] $end
$var reg 8 2 kv_strb[7:0] $end
$var reg 8 3 kv_last[7:0] $end
$var reg 1 4 array_ready $end
$var reg 1 5 array_valid $end
$var reg 64 6 array_data[63:0] $end
$var reg 3 7 array_stai[2:0] $end
$var reg 3 8 array_endi[2:0] $end
$var reg 8 9 array_strb[7:0] $end
$var reg 8 : array_last[7:0] $end
$var reg 1 ; out_ready $end
$var reg 1 < out_valid $end
$var reg 1 = out_data $end
$var reg 64 > aligned_data[63:0] $end
$var reg 4 ? out_count[3:0] $end
$var integer 32 @ out_tag_int $end
$scope module clkgen $end
$var reg 1 A clk $end
$var reg 1 B clk_n $end
$var reg 1 C reset $end
$var reg 1 D reset_n $end
$var reg 1 E sync $end
$var reg 1 F clk_i $end
$upscope $end
$scope module in_source $end
$var reg 1 G clk $end
$var reg 1 H reset $end
$var reg 1 I valid $end
$var reg 1 J ready $end
$var reg 1 K dvalid $end
$var reg 64 L data[63:0] $end
$var reg 4 M count[3:0] $end
$var reg 1 N last $end
$var reg 1 O ctrl[0:0] $end
$var reg 1 P x[0:0] $end
$var reg 1 Q y[0:0] $end
$var reg 1 R z[0:0] $end
$scope module monitor $end
$var reg 1 S clk $end
$var reg 1 T reset $end
$var reg 1 U valid $end
$var reg 1 V ready $end
$var reg 1 W dvalid $end
$var reg 64 X data[63:0] $end
$var reg 4 Y count[3:0] $end
$var reg 1 Z last $end
$var reg 1 [ ctrl[0:0] $end
$var reg 1 \ x[0:0] $end
$var reg 1 ] y[0:0] $end
$var reg 1 ^ z[0:0] $end
$upscope $end
$upscope $end
$scope module record_praer_i $end
$var reg 1 _ clk $end
$var reg 1 ` reset $end
$var reg 1 a in_valid $end
$var reg 1 b in_ready $end
$comment in_data is not handled $end
$var reg 8 c in_last[7:0] $end
$var reg 3 d in_stai[2:0] $end
$var reg 3 e in_endi[2:0] $end
$var reg 8 f in_strb[7:0] $end
$var reg 1 g out_valid $end
$var reg 1 h out_ready $end
$comment out_data is not handled $end
$var reg 8 i out_last[7:0] $end
$var reg 3 j out_stai[2:0] $end
$var reg 3 k out_endi[2:0] $end
$var reg 8 l out_strb[7:0] $end
$upscope $end
$scope module array_parser_i $end
$var reg 1 m clk $end
$var reg 1 n reset $end
$var reg 1 o in_valid $end
$var reg 1 p in_ready $end
$comment in_data is not handled $end
$var reg 8 q in_last[7:0] $end
$var reg 3 r in_stai[2:0] $end
$var reg 3 s in_endi[2:0] $end
$var reg 8 t in_strb[7:0] $end
$var reg 1 u out_valid $end
$var reg 1 v out_ready $end
$var reg 64 w out_data[63:0] $end
$var reg 8 x out_last[7:0] $end
$var reg 3 y out_stai[2:0] $end
$var reg 3 z out_endi[2:0] $end
$var reg 8 { out_strb[7:0] $end
$upscope $end
$scope module bool_parser_i $end
$var reg 1 | clk $end
$var reg 1 } reset $end
$var reg 1 !" in_valid $end
$var reg 1 "" in_ready $end
$comment in_data is not handled $end
$var reg 8 #" in_last[7:0] $end
$var reg 3 $" in_stai[2:0] $end
$var reg 3 %" in_endi[2:0] $end
$var reg 8 &" in_strb[7:0] $end
$var reg 1 '" out_valid $end
$var reg 1 (" out_ready $end
$var reg 1 )" out_data $end
$upscope $end
$upscope $end
$enddefinitions $end
#0
1!
1"
0#
1$
U%
U&
U'
U(
bUUUUUUUUUUUUUUUUUUUUUUUUUUUUUUUUUUUUUUUUUUUUUUUUUUUUUUUUUUUUUUUU )
bUUUU *
bUUUUUUUU +
bXXXX ,
U-
U.
bUUUUUUUUUUUUUUUUUUUUUUUUUUUUUUUUUUUUUUUUUUUUUUUUUUUUUUUUUUUUUUUU /
b000 0
b111 1
b11111111 2
b00000000 3
U4
U5
bUUUUUUUUUUUUUUUUUUUUUUUUUUUUUUUUUUUUUUUUUUUUUUUUUUUUUUUUUUUUUUUU 6
b000 7
b111 8
b11111111 9
b00000000 :
1;
U<
U=
bUUUUUUUUUUUUUUUUUUUUUUUUUUUUUUUUUUUUUUUUUUUUUUUUUUUUUUUUUUUUUUUU >
bUUUU ?
b10000000000000000000000000000000 @
0A
1B
1C
0D
0E
0F
0G
1H
UI
UJ
UK
bUUUUUUUUUUUUUUUUUUUUUUUUUUUUUUUUUUUUUUUUUUUUUUUUUUUUUUUUUUUUUUUU L
bUUUU M
UN
bU O
bU P
bU Q
bU R
0S
1T
UU
UV
UW
bUUUUUUUUUUUUUUUUUUUUUUUUUUUUUUUUUUUUUUUUUUUUUUUUUUUUUUUUUUUUUUUU X
bUUUU Y
UZ
bU [
bU \
bU ]
bU ^
0_
1`
Ua
Ub
b00000000 c
b000 d
b111 e
bUUUUUUUU f
Ug
Uh
b00000000 i
b000 j
b111 k
b11111111 l
0m
1n
Uo
Up
b00000000 q
b000 r
b111 s
b11111111 t
Uu
Uv
bUUUUUUUUUUUUUUUUUUUUUUUUUUUUUUUUUUUUUUUUUUUUUUUUUUUUUUUUUUUUUUUU w
b00000000 x
b000 y
b111 z
b11111111 {
0|
1}
U!"
U""
b00000000 #"
b000 $"
b111 %"
b11111111 &"
U'"
1("
U)"
#500000000
#600000000
#1000000000
1E
#2000000000
1#
0%
0&
0-
0.
bUUU 0
bUUU 1
bUUUUUUUU 2
bUUUUUUUU 3
04
05
bUUU 7
bUUU 8
bUUUUUUUU 9
bUUUUUUUU :
0<
0=
1A
0B
0E
1F
1G
0I
0J
UK
bUUUUUUUUUUUUUUUUUUUUUUUUUUUUUUUUUUUUUUUUUUUUUUUUUUUUUUUUUUUUUUUU L
bUUUU M
UN
bU O
bU P
bU Q
bU R
1S
0U
0V
1_
0a
0b
0g
0h
bUUUUUUUU i
bUUU j
bUUU k
bUUUUUUUU l
1m
0o
0p
bUUUUUUUU q
bUUUUUUUU t
0u
0v
bUUUUUUUU x
bUUU y
bUUU z
bUUUUUUUU {
1|
0!"
0""
bUUUUUUUU #"
bUUUUUUUU &"
0'"
0)"
#2005000000
0#
0A
1B
0F
0G
0S
0_
0m
0|
#2010000000
1#
1A
0B
1F
1G
1S
1_
1m
1|
#2015000000
0#
0A
1B
0F
0G
0S
0_
0m
0|
#2020000000
1#
1A
0B
1F
1G
1S
1_
1m
1|
#2025000000
0#
0A
1B
0F
0G
0S
0_
0m
0|
#2030000000
1#
1A
0B
1F
1G
1S
1_
1m
1|
#2035000000
0#
0A
1B
0F
0G
0S
0_
0m
0|
#2040000000
1#
1A
0B
1F
1G
1S
1_
1m
1|
#2045000000
0#
0A
1B
0F
0G
0S
0_
0m
0|
#2050000000
1#
1A
0B
1F
1G
1S
1_
1m
1|
#2055000000
0#
0A
1B
0F
0G
0S
0_
0m
0|
#2060000000
1#
1A
0B
1F
1G
1S
1_
1m
1|
#2065000000
0#
0A
1B
0F
0G
0S
0_
0m
0|
#2070000000
1#
1A
0B
1F
1G
1S
1_
1m
1|
#2075000000
0#
0A
1B
0F
0G
0S
0_
0m
0|
#2080000000
1#
1A
0B
1F
1G
1S
1_
1m
1|
#2085000000
0#
0A
1B
0F
0G
0S
0_
0m
0|
#2090000000
1#
1A
0B
1F
1G
1S
1_
1m
1|
#2095000000
0#
0A
1B
0F
0G
0S
0_
0m
0|
#2100000000
1#
0$
1A
0B
0C
1D
1F
1G
0H
1S
0T
1_
0`
1m
0n
1|
0}
#2105000000
Z"
0#
0A
1B
0F
0G
0S
0_
0m
0|
#2110000000
1#
1%
1&
1'
0(
b0111001101100101011101010110110001100001011101100010001001111011 )
b1000 *
b11111111 +
b0111 ,
1-
14
1A
0B
1F
1G
1I
1J
1K
b0111001101100101011101010110110001100001011101100010001001111011 L
b1000 M
0N
1S
1U
1V
1W
b0111001101100101011101010110110001100001011101100010001001111011 X
b1000 Y
0Z
1_
1a
1b
b11111111 f
1h
1m
1p
1v
1|
1""
#2115000000
0#
0A
1B
0F
0G
0S
0_
0m
0|
#2120000000
1#
b0111010101110010011101000101101100100000001110100010000000100010 )
1.
b0111001101100101011101010110110001100001011101100010001001111011 /
b010 0
b111 1
b11111100 2
b00000000 3
b000 7
b111 8
1A
0B
1F
1G
b0111010101110010011101000101101100100000001110100010000000100010 L
1S
b0111010101110010011101000101101100100000001110100010000000100010 X
1_
1g
b00000000 i
b010 j
b111 k
b11111100 l
1m
1o
b00000000 q
b11111100 t
b000 y
b111 z
1|
#2125000000
0#
0A
1B
0F
0G
0S
0_
0m
0|
#2130000000
1#
0&
b0110010101110011011011000110000101100110001000000010110001100101 )
0.
b0111010101110010011101000101101100100000001110100010000000100010 /
b000 0
b110 1
b00000000 2
b00000001 3
b0111001101100101011101010110110001100001011101100010001001111011 6
b00000000 9
b00000000 :
1A
0B
1F
1G
0J
b0110010101110011011011000110000101100110001000000010110001100101 L
1S
0V
b0110010101110011011011000110000101100110001000000010110001100101 X
1_
0b
0g
b00000001 i
b000 j
b110 k
b00000000 l
1m
0o
b00000001 q
b00000000 t
b0111001101100101011101010110110001100001011101100010001001111011 w
b00000000 x
b00000000 {
1|
b00000000 #"
b00000000 &"
#2135000000
0#
0A
1B
0F
0G
0S
0_
0m
0|
#2140000000
1#
1&
1.
b011 0
b000 1
b11111000 2
b00000000 3
1A
0B
1F
1G
1J
1S
1V
1_
1b
1g
b00000000 i
b011 j
b000 k
b11111000 l
1m
1o
b00000000 q
b11111000 t
1|
#2145000000
0#
0A
1B
0F
0G
0S
0_
0m
0|
#2150000000
1#
1(
bUUUUUUUUUUUUUUUUUUUUUUUUUUUUUUUUUUUUUUUUUUUUUUUU0111110101011101 )
b0010 *
b00000011 +
b0001 ,
b0110010101110011011011000110000101100110001000000010110001100101 /
b000 0
b111 1
b11111101 2
15
b0111010101110010011101000101101100100000001110100010000000100010 6
b101 7
b11100000 9
1A
0B
1F
1G
bUUUUUUUUUUUUUUUUUUUUUUUUUUUUUUUUUUUUUUUUUUUUUUUU0111110101011101 L
b0010 M
1N
1S
bUUUUUUUUUUUUUUUUUUUUUUUUUUUUUUUUUUUUUUUUUUUUUUUU0111110101011101 X
b0010 Y
1Z
1_
b00000011 f
b000 j
b111 k
b11111101 l
1m
b11111101 t
1u
b0111010101110010011101000101101100100000001110100010000000100010 w
b101 y
b11100000 {
1|
1!"
b11100000 &"
#2155000000
0#
0A
1B
0F
0G
0S
0_
0m
0|
#2160000000
1#
0%
bUUUUUUUUUUUUUUUUUUUUUUUUUUUUUUUUUUUUUUUUUUUUUUUU0111110101011101 /
b000 1
b00000001 2
b00000010 3
b0110010101110011011011000110000101100110001000000010110001100101 6
b000 7
b11111101 9
1<
1=
1A
0B
1F
1G
0I
1S
0U
1_
0a
b00000010 i
b000 k
b00000001 l
1m
b00000010 q
b00000001 t
b0110010101110011011011000110000101100110001000000010110001100101 w
b000 y
b11111101 {
1|
b11111101 &"
1'"
1)"
#2165000000
0#
0A
1B
0F
0G
0S
0_
0m
0|
#2170000000
1#
0.
b111 1
05
bUUUUUUUUUUUUUUUUUUUUUUUUUUUUUUUUUUUUUUUUUUUUUUUU0111110101011101 6
b00000000 9
b00000011 :
0=
1A
0B
1F
1G
1S
1_
0g
b111 k
1m
0o
0u
bUUUUUUUUUUUUUUUUUUUUUUUUUUUUUUUUUUUUUUUUUUUUUUUU0111110101011101 w
b00000011 x
b00000000 {
1|
0!"
b00000011 #"
b00000000 &"
0)"
#2175000000
0#
0A
1B
0F
0G
0S
0_
0m
0|
#2180000000
1#
0<
1A
0B
1F
1G
1S
1_
1m
1|
0'"
